{
	"id": "f981c22b-9dbc-42d0-b495-34883ce51e5e",
	"name": "REGRES.IN",
	"values": [
		{
			"key": "baseURL",
			"value": "https://reqres.in/",
			"enabled": true
		}
	],
	"_postman_variable_scope": "environment",
	"_postman_exported_at": "2020-10-07T07:46:40.270Z",
	"_postman_exported_using": "Postman/7.33.1"
}